TerminID;Betreff;MitarbeiterInID;DauerInStunden;Startdatum;Startzeit;Enddatum;Endzeit
1;Kundentermin;1;3.5;07.01.2022;12:00;07.01.2022;14:30
2;Kundentermin;2;1;08.01.2022;10:00;08.01.2022;11:00
3;Reparaturtermin;1;2;07.01.2022;12:00;07.01.2022;14:00
4;Kundentermin;3;4;10.01.2022;09:00;11.01.2022;13:00
5;Reparaturtermin;1;1;10.01.2022;09:00;09.01.2022;10:00
6;Kundentermin;2;2;10.01.2022;16:00;10.01.2022;18:00